<svg width="37" height="37" viewBox="0 0 37 37" xmlns="http://www.w3.org/2000/svg" xmlns:xlink="http://www.w3.org/1999/xlink">
    <defs>
        <path id="ygd1osochb" d="M0 0h34.434v32.409H0z"/>
        <path id="rimzewz3ed" d="M0 36.46h34.434V0H0z"/>
        <filter color-interpolation-filters="auto" id="eaute6cv8a">
            <feColorMatrix in="SourceGraphic" values="0 0 0 0 1.000000 0 0 0 0 1.000000 0 0 0 0 1.000000 0 0 0 1.000000 0"/>
        </filter>
    </defs>
    <g filter="url(#eaute6cv8a)" fill="none" fill-rule="evenodd">
        <g transform="translate(0 4.051)">
            <mask id="xmzuna33wc" fill="#fff">
                <use xlink:href="#ygd1osochb"/>
            </mask>
            <path d="M17.217 32.41C7.724 32.41 0 24.706 0 15.235 0 8.81 3.552 2.972 9.273 0l1.261 2.241C5.6 4.806 2.578 9.771 2.578 15.236c0 8.051 6.568 14.602 14.64 14.602 8.07 0 14.638-6.55 14.638-14.602 0-5.462-3.021-10.429-7.884-12.957L25.165 0c5.717 2.973 9.27 8.811 9.27 15.236 0 9.47-7.725 17.173-17.218 17.173" fill="#14123A" mask="url(#xmzuna33wc)"/>
        </g>
        <mask id="xd66jdl5ie" fill="#fff">
            <use xlink:href="#rimzewz3ed"/>
        </mask>
        <path fill="#14123A" mask="url(#xd66jdl5ie)" d="M15.191 17.217h3.039V0H15.19z"/>
    </g>
</svg>
