<svg width="13" height="13" viewBox="0 0 13 13" xmlns="http://www.w3.org/2000/svg">
    <defs>
        <filter color-interpolation-filters="auto" id="yjf2wd4z5a">
            <feColorMatrix in="SourceGraphic" values="0 0 0 0 1.000000 0 0 0 0 1.000000 0 0 0 0 1.000000 0 0 0 1.000000 0"/>
        </filter>
    </defs>
    <g filter="url(#yjf2wd4z5a)" fill="none" fill-rule="evenodd">
        <g fill="#000">
            <path d="M.199 4.983V13H2.692V4.983zM1.444 3.888a1.444 1.444 0 0 1 0-2.888c.795 0 1.444.649 1.444 1.444 0 .799-.645 1.444-1.444 1.444M12.022 13h-2.49V9.1c0-.93-.018-2.126-1.293-2.126-1.298 0-1.497 1.012-1.497 2.059V13h-2.49V4.982h2.39v1.095h.033c.334-.63 1.147-1.293 2.359-1.293 2.52 0 2.988 1.661 2.988 3.821V13z"/>
        </g>
    </g>
</svg>
