<svg width="18" height="13" viewBox="0 0 18 13" xmlns="http://www.w3.org/2000/svg" xmlns:xlink="http://www.w3.org/1999/xlink">
    <defs>
        <filter color-interpolation-filters="auto" id="lkje0cj3oa">
            <feColorMatrix in="SourceGraphic" values="0 0 0 0 1.000000 0 0 0 0 1.000000 0 0 0 0 1.000000 0 0 0 1.000000 0"/>
        </filter>
        <path id="mdbd5f6pob" d="M0 0h18v13H0z"/>
    </defs>
    <g filter="url(#lkje0cj3oa)" fill="none" fill-rule="evenodd">
        <mask id="n6iwdj7u4c" fill="#fff">
            <use xlink:href="#mdbd5f6pob"/>
        </mask>
        <path d="M7.16 9.262V3.764l4.704 2.75-4.705 2.748zm10.464-7.228A2.294 2.294 0 0 0 16.032.39C14.63 0 9 0 9 0S3.371 0 1.968.389A2.294 2.294 0 0 0 .376 2.034C0 3.485 0 6.514 0 6.514s0 3.027.376 4.478c.207.8.817 1.405 1.592 1.62C3.37 13 9 13 9 13s5.629 0 7.032-.389a2.258 2.258 0 0 0 1.592-1.619C18 9.541 18 6.513 18 6.513s0-3.028-.376-4.479z" fill="#000" mask="url(#n6iwdj7u4c)"/>
    </g>
</svg>
