<svg width="37" height="37" viewBox="0 0 37 37" xmlns="http://www.w3.org/2000/svg" xmlns:xlink="http://www.w3.org/1999/xlink">
    <defs>
        <filter color-interpolation-filters="auto" id="4b4vambq0a">
            <feColorMatrix in="SourceGraphic" values="0 0 0 0 1.000000 0 0 0 0 1.000000 0 0 0 0 1.000000 0 0 0 1.000000 0"/>
        </filter>
        <path id="aapywi3cnb" d="M0 0h28.357v36.46H0z"/>
    </defs>
    <g filter="url(#4b4vambq0a)" fill="none" fill-rule="evenodd">
        <mask id="6aepn6w0pc" fill="#fff">
            <use xlink:href="#aapywi3cnb"/>
        </mask>
        <path d="M14.138 3.146c2.277 2.675 6.774 8.195 9.394 11.65 3.119 4.114 3.524 8.529 1.202 13.12-2.03 4.018-5.788 6.293-10.553 6.407-4.29 0-8.164-2.222-10.362-5.943-2.16-3.655-2.245-8.041-.228-11.73.752-1.376 1.78-2.657 2.867-4.013.332-.415.664-.83.988-1.247a300.861 300.861 0 0 1 6.692-8.244M14.15 0C13.855 0 8.224 6.915 5.766 10.076c-1.405 1.808-2.954 3.556-4.043 5.546-5.119 9.362 1.795 20.838 12.458 20.838h.02c5.465-.13 10.018-2.794 12.434-7.577 2.699-5.338 2.224-10.593-1.406-15.38C21.918 9.137 14.43 0 14.149 0" fill="#14123A" mask="url(#6aepn6w0pc)"/>
        <path d="M14.009 30.383c-4.374 0-7.932-3.635-7.932-8.102h2.187c0 3.236 2.577 5.87 5.745 5.87h.12l.05 2.23-.17.002z" fill="#14123A"/>
    </g>
</svg>
